^C:\USERS\GHOST IN THE MACHINE\DESKTOP\FVTC\SPRING 2020\C++\AS.ASSIGNMENT2SIMPLECALCULATOR\C-ASSIGNMENT-2-SIMPLE-CALCULATOR\AS.ASSIGNMENT2SIMPLECALCULATOR\MAIN.CPP
C:\USERS\GHOST IN THE MACHINE\DESKTOP\FVTC\SPRING 2020\C++\AS.ASSIGNMENT2SIMPLECALCULATOR\C-ASSIGNMENT-2-SIMPLE-CALCULATOR\AS.ASSIGNMENT2SIMPLECALCULATOR\X64\DEBUG\VC142.PDB
C:\USERS\GHOST IN THE MACHINE\DESKTOP\FVTC\SPRING 2020\C++\AS.ASSIGNMENT2SIMPLECALCULATOR\C-ASSIGNMENT-2-SIMPLE-CALCULATOR\AS.ASSIGNMENT2SIMPLECALCULATOR\X64\DEBUG\VC142.IDB
C:\USERS\GHOST IN THE MACHINE\DESKTOP\FVTC\SPRING 2020\C++\AS.ASSIGNMENT2SIMPLECALCULATOR\C-ASSIGNMENT-2-SIMPLE-CALCULATOR\AS.ASSIGNMENT2SIMPLECALCULATOR\X64\DEBUG\MAIN.OBJ
